COMMENTS,comments,-9999,9999,none,256A,0,3,0
DELAY_LINE_X_FILE,optimum delay line for X TIA output measurement,-9999,9999,none,&,0,3,0
DELAY_LINE_X_LOC,loc delay line in X TIA output measurement,-9999,9999,ps,#0.00,0,2,0
DELAY_LINE_X_SIG,sig delay line in X TIA output measurement,-9999,9999,ps,#0.00,0,2,0
DELAY_LINE_Y_FILE,optimum delay line for Y TIA output measurement,-9999,9999,none,&,0,3,0
DELAY_LINE_Y_LOC,loc delay line in Y TIA output measurement,-9999,9999,ps,#0.00,0,2,0
DELAY_LINE_Y_SIG,sig delay line in Y TIA output measurement,-9999,9999,ps,#0.00,0,2,0
DEV_GD_X,inter-polarization GD skew deviation for X relative to X and Y mean value,-5,5,ps,#0.00,0,2,0
DEV_GD_X_MAX,inter-polarization GD skew deviation for X relative to X and Y mean value,-10,10,ps,#0.00,0,2,0
DEV_GD_XI,intra-polarization GD skew deviation for XI relative to X mean value,-2.5,2.5,ps,#0.00,0,2,0
DEV_GD_XI_MAX,intra-polarization GD skew deviation for XI relative to X mean value,-5,5,ps,#0.00,0,2,0
DEV_GD_XIN,group delay deviation for XIN relative to XI mean value,-9999,9999,ps,#0.00,0,2,0
DEV_GD_XIN_MAX,group delay deviation for XIN relative to XI mean value,-9999,9999,ps,#0.00,0,2,0
DEV_GD_XIP,group delay deviation for XIP relative to XI mean value,-9999,9999,ps,#0.00,0,2,0
DEV_GD_XIP_MAX,group delay deviation for XIP relative to XI mean value,-9999,9999,ps,#0.00,0,2,0
DEV_GD_XQ,intra-polarization GD skew deviation for XQ relative to X mean value,-2.5,2.5,ps,#0.00,0,2,0
DEV_GD_XQ_MAX,intra-polarization GD skew deviation for XQ relative to X mean value,-5,5,ps,#0.00,0,2,0
DEV_GD_XQN,group delay deviation for XQN relative to XQ mean value,-9999,9999,ps,#0.00,0,2,0
DEV_GD_XQN_MAX,group delay deviation for XQN relative to XQ mean value,-9999,9999,ps,#0.00,0,2,0
DEV_GD_XQP,group delay deviation for XQP relative to XQ mean value,-9999,9999,ps,#0.00,0,2,0
DEV_GD_XQP_MAX,group delay deviation for XQP relative to XQ mean value,-9999,9999,ps,#0.00,0,2,0
DEV_GD_Y,inter-polarization GD skew deviation for Y relative to X and Y mean value,-5,5,ps,#0.00,0,2,0
DEV_GD_Y_MAX,inter-polarization GD skew deviation for Y relative to X and Y mean value,-10,10,ps,#0.00,0,2,0
DEV_GD_YI,intra-polarization GD skew deviation for YI relative to Y mean value,-2.5,2.5,ps,#0.00,0,2,0
DEV_GD_YI_MAX,intra-polarization GD skew deviation for YI relative to Y mean value,-5,5,ps,#0.00,0,2,0
DEV_GD_YIN,group delay deviation for YIN relative to YI mean value,-9999,9999,ps,#0.00,0,2,0
DEV_GD_YIN_MAX,group delay deviation for YIN relative to YI mean value,-9999,9999,ps,#0.00,0,2,0
DEV_GD_YIP,group delay deviation for YIP relative to YI mean value,-9999,9999,ps,#0.00,0,2,0
DEV_GD_YIP_MAX,group delay deviation for YIP relative to YI mean value,-9999,9999,ps,#0.00,0,2,0
DEV_GD_YQ,intra-polarization GD skew deviation for YQ relative to Y mean value,-2.5,2.5,ps,#0.00,0,2,0
DEV_GD_YQ_MAX,intra-polarization GD skew deviation for YQ relative to Y mean value,-5,5,ps,#0.00,0,2,0
DEV_GD_YQN,group delay deviation for YQN relative to YQ mean value,-9999,9999,ps,#0.00,0,2,0
DEV_GD_YQN_MAX,group delay deviation for YQN relative to YQ mean value,-9999,9999,ps,#0.00,0,2,0
DEV_GD_YQP,group delay deviation for YQP relative to YQ mean value,-9999,9999,ps,#0.00,0,2,0
DEV_GD_YQP_MAX,group delay deviation for YQP relative to YQ mean value,-9999,9999,ps,#0.00,0,2,0
DLP_GD_FILE,dlp and group dealy test data file,-9999,9999,none,&,0,3,0
EQUIP_ID,Equipment Identity,-9999,9999,none,&,0,4,0
I_GC_XI,supply current for XI GC,0,0.5,mA,#0.000,0,2,0
I_GC_XQ,supply current for XQ GC,0,0.5,mA,#0.000,0,2,0
I_GC_YI,supply current for YI GC,0,0.5,mA,#0.000,0,2,0
I_GC_YQ,supply current for YQGC,0,0.5,mA,#0.000,0,2,0
ICC_TIA_X,supply current for X TIA,280,360,mA,#0.00,0,2,0
ICC_TIA_Y,supply current for Y TIA,-1,1,mA,#0.00,0,2,0
LANE_1_P2_VGC_FILE,vgc file for lane 1 measurement at power 2,-9999,9999,none,&,0,3,0
LANE_2_P2_VGC_FILE,vgc file for lane 2 measurement at power 2,-9999,9999,none,&,0,3,0
MAX_S21_P2,max s21 for all lanes under power 2,-9999,9999,GHz,#0.00,0,2,0
MAX_SPRR_LOC_P2,max local sprr for all lanes under power 2,-9999,-16,dB,#0.00,0,2,0
MAX_SPRR_SIG_P2,max signal sprr for all lanes under power 2,-9999,-17.5,dB,#0.00,0,2,0
MIN_CURRENT_RATIO_P2,min current ratio over lanes at power 2,10,9999,dB,#0.0,0,2,0
MIN_S21_P2,min s21 for all lanes under power 2,20,9999,GHz,#0.00,0,2,0
NF_FCU_XIP,noise floor of FCU for XIP channel,-9999,9999,mA,#0.00,0,2,0
NF_FCU_XQP,noise floor of FCU for XQP channel,-9999,9999,mA,#0.00,0,2,0
NF_FCU_YIP,noise floor of FCU for YIP channel,-9999,9999,mA,#0.00,0,2,0
NF_FCU_YQP,noise floor of FCU for YQP channel,-9999,9999,mA,#0.00,0,2,0
NODE,Node Number,-9999,9999,none,0,0,1,0
OPERATOR_ID,Operator identifier,-9999,9999,none,&,0,4,0
PART_CODE,Product code,-9999,9999,none,20A,0,5,0
PLOT_CURRENT_RATIO_STAT,current ratio summary file,-9999,9999,none,&,0,3,0
PLOT_LANE_1_P2_VGC,plot for lane 1 vgc control measurement,-9999,9999,none,&,0,3,0
PLOT_LANE_2_P2_VGC,plot for lane 2 vgc control measurement,-9999,9999,none,&,0,3,0
PLOT_S21_P2,s21 plot under power 2,-9999,9999,none,&,0,3,0
PLOT_S21_STAT,3dB bandwidth statistics over lanes and wavelength,-9999,9999,none,&,0,3,0
PLOT_S22,plot for all s22,-9999,9999,none,&,0,3,0
PLOT_SPRR_P2,sprr plot under power 2,-9999,9999,none,&,0,3,0
PLOT_SPRR_STAT,sprr statistics over lanes and wavelength,-9999,9999,none,&,0,3,0
POL_SUM_IP_X_LOC,photocurrent sum of X chip at local polarization optimization,0.2,9999,mA,#0.00,0,2,0
POL_SUM_IP_X_SIG,photocurrent sum of X chip at signal polarization optimization,0.2,9999,mA,#0.00,0,2,0
POL_SUM_IP_Y_LOC,photocurrent sum of Y chip at local polarization optimization,0.2,9999,mA,#0.00,0,2,0
POL_SUM_IP_Y_SIG,photocurrent sum of Y chip at signal polarization optimization,0.2,9999,mA,#0.00,0,2,0
POL_X_LOC_FILE,local polarization controller optimization for X chip file,-9999,9999,none,&,0,3,0
POL_X_SIG_FILE,signal polarization controller optimization for X chip file,-9999,9999,none,&,0,3,0
POL_Y_LOC_FILE,local polarization controller optimization for X chip file,-9999,9999,none,&,0,3,0
POL_Y_SIG_FILE,signal polarization controller optimization for Y chip file,-9999,9999,none,&,0,3,0
PRO_XIN_FILE,processing sprr file for xin and different wavelength,-9999,9999,none,&,0,3,0
PRO_XIP_FILE,processing sprr file for xip and different wavelength,-9999,9999,none,&,0,3,0
PRO_XQN_FILE,processing sprr file for xqn and different wavelength,-9999,9999,none,&,0,3,0
PRO_XQP_FILE,processing sprr file for xqp and different wavelength,-9999,9999,none,&,0,3,0
PRO_YIN_FILE,processing sprr file for yin and different wavelength,-9999,9999,none,&,0,3,0
PRO_YIP_FILE,processing sprr file for yip and different wavelength,-9999,9999,none,&,0,3,0
PRO_YQN_FILE,processing sprr file for yqn and different wavelength,-9999,9999,none,&,0,3,0
PRO_YQP_FILE,processing sprr file for yqp and different wavelength,-9999,9999,none,&,0,3,0
RAW_XIN_FILE,raw sprr file for xin and different wavelength,-9999,9999,none,&,0,3,0
RAW_XIP_FILE,raw sprr file for xip and different wavelength,-9999,9999,none,&,0,3,0
RAW_XQN_FILE,raw sprr file for xqn and different wavelength,-9999,9999,none,&,0,3,0
RAW_XQP_FILE,raw sprr file for xqp and different wavelength,-9999,9999,none,&,0,3,0
RAW_YIN_FILE,raw sprr file for yin and different wavelength,-9999,9999,none,&,0,3,0
RAW_YIP_FILE,raw sprr file for yip and different wavelength,-9999,9999,none,&,0,3,0
RAW_YQN_FILE,raw sprr file for yqn and different wavelength,-9999,9999,none,&,0,3,0
RAW_YQP_FILE,raw sprr file for yqp and different wavelength,-9999,9999,none,&,0,3,0
S21_DEV_P2,deviation of  s21 for all lanes under power 2,-9999,3.8,GHz,#0.00,0,2,0
S21_LANE_1_P2_VGC_1,3 dB bandwidth at vgc 1 for lane 1 at power 2,-9999,9999,GHz,#0.00,0,2,0
S21_LANE_1_P2_VGC_2,3 dB bandwidth at vgc 2 for lane 1 at power 2,-9999,9999,GHz,#0.00,0,2,0
S21_LANE_1_P2_VGC_3,3 dB bandwidth at vgc 3 for lane 1 at power 2,-9999,9999,GHz,#0.00,0,2,0
S21_LANE_1_P2_VGC_4,3 dB bandwidth at vgc 4 for lane 1 at power 2,20,9999,GHz,#0.00,0,2,0
S21_LANE_1_P2_VGC_5,3 dB bandwidth at vgc 5 for lane 1 at power 2,20,9999,GHz,#0.00,0,2,0
S21_LANE_2_P2_VGC_1,3 dB bandwidth at vgc 1 for lane 2 at power 2,-9999,9999,GHz,#0.00,0,2,0
S21_LANE_2_P2_VGC_2,3 dB bandwidth at vgc 2 for lane 2 at power 2,-9999,9999,GHz,#0.00,0,2,0
S21_LANE_2_P2_VGC_3,3 dB bandwidth at vgc 3 for lane 2 at power 2,-9999,9999,GHz,#0.00,0,2,0
S21_LANE_2_P2_VGC_4,3 dB bandwidth at vgc 4 for lane 2 at power 2,20,9999,GHz,#0.00,0,2,0
S21_LANE_2_P2_VGC_5,3 dB bandwidth at vgc 5 for lane 2 at power 2,20,9999,GHz,#0.00,0,2,0
S21_MASK_CHECK_P2,s21 mask check under power 2,1,1,none,0,0,1,0
S21_MASK_FILE,s21 statistics file,-9999,9999,none,&,0,3,0
S21_XIN_P2,xin s22 under power 2,35,9999,GHz,#0.00,0,2,0
S21_XIP_P2,xip s22 under power 2,35,9999,GHz,#0.00,0,2,0
S21_XQN_P2,xqn s22 under power 2,35,9999,GHz,#0.00,0,2,0
S21_XQP_P2,xqp s22 under power 2,35,9999,GHz,#0.00,0,2,0
S21_YIN_P2,yin s22 under power 2,35,9999,GHz,#0.00,0,2,0
S21_YIP_P2,yip s22 under power 2,35,9999,GHz,#0.00,0,2,0
S21_YQN_P2,yqn s22 under power 2,35,9999,GHz,#0.00,0,2,0
S21_YQP_P2,yqp s22 under power 2,35,9999,GHz,#0.00,0,2,0
S22_MASK_CHECK,s22 mask check,1,1,none,0,0,1,0
S22_MASK_FILE,s22 mask statistics file,-9999,9999,none,&,0,3,0
SOFTWARE_IDENT,Software Identity,-9999,9999,none,256A,0,3,0
SPEC_ID,Specification ID,-9999,9999,none,80A,0,4,0
SPRR_LOC_MASK_CHECK_P2,local sprr mask check under power 2,1,1,none,0,0,1,0
SPRR_MASK_FILE,sprr mask statistics file,-9999,9999,none,&,0,3,0
SPRR_POWER_IP_P2_FILE,sprr power and current file under power 2,-9999,9999,none,&,0,3,0
SPRR_SIG_MASK_CHECK_P2,signal sprr mask check under power 2,1,1,none,0,0,1,0
SPRR_XI_LOC_P2,local sprr for xi under power 2,-9999,-16,dB,#0.00,0,2,0
SPRR_XI_SIG_P2,signal sprr for xi under power 2,-9999,-17.5,dB,#0.00,0,2,0
SPRR_XQ_LOC_P2,local sprr for xq under power 2,-9999,-16,dB,#0.00,0,2,0
SPRR_XQ_SIG_P2,signal sprr for xq under power 2,-9999,-17.5,dB,#0.00,0,2,0
SPRR_YI_LOC_P2,local sprr for yi under power 2,-9999,-16,dB,#0.00,0,2,0
SPRR_YI_SIG_P2,signal sprr for yi under power 2,-9999,-17.5,dB,#0.00,0,2,0
SPRR_YQ_LOC_P2,local sprr for yq under power 2,-9999,-16,dB,#0.00,0,2,0
SPRR_YQ_SIG_P2,signal sprr for yq under power 2,-9999,-17.5,dB,#0.00,0,2,0
TC_BW_SET,TIA bandwidth control setting,2,2,none,#0.00,0,2,0
TC_GD_SET,skew and group delay setting,38,38,GHz,#0.00,0,2,0
TC_INPUT_POWER_LOCAL_2,initial input power condition 1 to local fibre,-3,-3,dBm,#0.00,0,2,0
TC_INPUT_POWER_SIGNAL_2,initial input power condition 1 to signal fibre,-3,-3,dBm,#0.00,0,2,0
TC_INPUT_POWER_TOL,input power tolerance,0.1,0.1,dB,#0.00,0,2,0
TC_PD_REVERSE_BIAS,reverse bias voltage for working PD,5,5,V,#0.00,0,2,0
TC_SPRR_SET,sprr test setting such as 3dB bandwidth,0,21,GHz,#0.00,0,2,0
TC_TEMPERATURE,test temperature,40,40,degC,#0.00,0,2,0
TC_TIA_VCC,TIA supply voltage,3.3,3.3,V,#0.00,0,2,0
TC_TIA_VGC_1,GC control voltage condition 1 under manual mode,0.5,0.5,V,#0.00,0,2,0
TC_TIA_VGC_2,GC control voltage condition 2 under manual mode,1,1,V,#0.00,0,2,0
TC_TIA_VGC_3,GC control voltage condition 3 under manual mode,1.5,1.5,V,#0.00,0,2,0
TC_TIA_VGC_4,GC control voltage condition 4 under manual mode,2,2,V,#0.00,0,2,0
TC_TIA_VGC_5,GC control voltage condition 5 under manual mode,2.5,2.5,V,#0.00,0,2,0
TC_TIA_VGC_XI,XI TIA GC control voltage under manual mode,1.5,1.5,V,#0.00,0,2,0
TC_TIA_VGC_XQ,XQ TIA GC control voltage under manual mode,1.5,1.5,V,#0.00,0,2,0
TC_TIA_VGC_YI,YI TIA GC control voltage under manual mode,1.5,1.5,V,#0.00,0,2,0
TC_TIA_VGC_YQ,YQ TIA GC control voltage under manual mode,1.5,1.5,V,#0.00,0,2,0
TC_WAVELENGTH,test wavelength ,1545.72,1545.72,nm,#0.00,0,2,0
TEST_STATUS,Test status,-9999,9999,none,14A,0,6,0
TEST_TIME,Test Time,-9999,9999,minute,#0.00,0,2,0
TEST_VGC_LANE_1,vgc control measurement for output lane 1,-9999,9999,none,80A,0,4,0
TEST_VGC_LANE_2,vgc control measurement for output lane 2,-9999,9999,none,80A,0,4,0
TIME_DATE,Time and Date,-9999,9999,none,14A,0,6,0
TIME_SENSITIVITY_LIA_X,delay line adjustment data for X TIA output,-9999,9999,ms,#0.00,0,2,0
TIME_SENSITIVITY_LIA_Y,time sensitivity for Y output measurement,-9999,9999,ms,#0.00,0,2,0
VOLTAGE_SENSITIVITY_LIA_X,delay line adjustment data for Y TIA output,-9999,9999,mVpp,#0.00,0,2,0
VOLTAGE_SENSITIVITY_LIA_Y,voltage sensitivity for Y output measurement,-9999,9999,mVpp,#0.00,0,2,0
S21_XIP_MAG_1GHZ,raw magnitude s21 value at 1ghz x tia,-9999,9999,dB,#0.000,0,2,0
S21_YIP_MAG_1GHZ,raw magnitude s21 value at 1ghz y tia,-9999,9999,dB,#0.000,0,2,0
