D:\Testset\RX6464_GB_RFTest\CFP2 GB RX Test\RxGoldBoxRFTest\TestEngine\Configuration\ConherentRx\RfSwitch.xml
D:\Testset\RX6464_GB_RFTest\CFP2 GB RX Test\RxGoldBoxRFTest\TestEngine\Configuration\ConherentRx\CoherentReceiverTestParams.xml
D:\Testset\RX6464_GB_RFTest\CFP2 GB RX Test\RxGoldBoxRFTest\TestEngine\Configuration\ConherentRx\CoherentReceiverConversionGainTC.xml
D:\Testset\RX6464_GB_RFTest\CFP2 GB RX Test\RxGoldBoxRFTest\TestEngine\Configuration\ConherentRx\TempTable.xml
D:\Testset\RX6464_GB_RFTest\CFP2 GB RX Test\RxGoldBoxRFTest\TestEngine\Configuration\ConherentRx\CohRxSpliterRatioCal.xml
