Rear Current [mA],Front Pair Number,Constant Front Current [mA],Non-constant Front Current [mA]
0.0659341,1,5,0
0.131868,1,5,0
0.175824,1,5,0
0.241758,1,5,0
0.307692,1,5,0
0.373626,1,5,0
0.43956,1,5,0
0.505495,1,5,0
0.571429,1,5,0
0.637363,1,5,0
0.703297,1,5,0
0.791209,1,5,0
0.857143,1,5,0
0.923077,1,5,0
0.989011,1,5,0
1.07692,1,5,0
1.14286,1,5,0
1.23077,1,5,0
1.2967,1,5,0
1.38462,1,5,0
1.47253,1,5,0
1.53846,1,5,0
1.62637,1,5,0
1.71429,1,5,0
1.8022,1,5,0
1.89011,1,5,0
1.95604,1,5,0
2.06593,1,5,0
2.15385,1,5,0
2.24176,1,5,0
2.32967,1,5,0
2.41758,1,5,0
2.52747,1,5,0
2.61538,1,5,0
2.7033,1,5,0
2.81319,1,5,0
2.9011,1,5,0
3.01099,1,5,0.00909091
3.12088,1,5,0.0181818
3.23077,1,5,0.0272727
3.31868,1,5,0.0363636
3.42857,1,5,0.0454545
3.53846,1,5,0.0636364
3.64835,1,5,0.0818182
3.78022,1,5,0.1
3.89011,1,5,0.118182
4,1,5,0.136364
4.10989,1,5,0.163636
4.24176,1,5,0.181818
