Rear Current [mA],Front Pair Number,Constant Front Current [mA],Non-constant Front Current [mA]
0.0659341,4,5,3.61
0.131868,4,5,3.61
0.175824,4,5,3.61
0.241758,4,5,3.61
0.307692,4,5,3.61
0.373626,4,5,3.61
0.43956,4,5,3.61
0.505495,4,5,3.61
0.571429,4,5,3.61
0.637363,4,5,3.61
0.703297,4,5,3.61
0.791209,4,5,3.61
0.857143,4,5,3.61
0.923077,4,5,3.61
0.989011,4,5,3.61
1.07692,4,5,3.61
1.14286,4,5,3.61
1.23077,4,5,3.61
1.2967,4,5,3.61
1.38462,4,5,3.61
1.47253,4,5,3.64909
1.53846,4,5,3.68818
1.62637,4,5,3.72727
1.71429,4,5,3.76636
1.8022,4,5,3.80545
1.89011,4,5,3.84455
1.95604,4,5,3.88364
2.06593,4,5,3.92273
2.15385,4,5,3.96182
2.24176,4,5,4.04
2.32967,4,5,4.12364
2.41758,4,5,4.16545
2.52747,4,5,4.20727
2.61538,4,5,4.24909
2.7033,4,5,4.29091
2.81319,4,5,4.33273
2.9011,4,5,4.41636
3.01099,4,5,4.5
3.12088,4,5,4.59091
3.23077,4,5,4.68182
3.31868,4,5,4.72727
3.42857,4,5,4.77273
3.53846,4,5,4.81818
3.64835,4,5,4.86364
3.78022,4,5,4.90909
3.89011,4,5,4.95455
4,4,5,5
4.10989,4,5,5
4.24176,4,5,5
4.35165,4,5,5
4.48352,4,5,5
4.61538,5,5,0
4.72527,5,5,0
4.85714,5,5,0
4.98901,5,5,0
5.12088,5,5,0.00909091
5.25275,5,5,0.0272727
5.38462,5,5,0.0363636
5.53846,5,5,0.0454545
5.67033,5,5,0.0636364
5.82418,5,5,0.0818182
5.95604,5,5,0.1
6.10989,5,5,0.118182
6.24176,5,5,0.136364
6.3956,5,5,0.154545
6.54945,5,5,0.163636
6.7033,5,5,0.172727
6.85714,5,5,0.181818
7.03297,5,5,0.2
7.18681,5,5,0.221818
7.34066,5,5,0.232727
7.51648,5,5,0.243636
7.69231,5,5,0.254545
7.84615,5,5,0.265455
8.02198,5,5,0.287273
8.1978,5,5,0.309091
8.3956,5,5,0.331818
8.57143,5,5,0.355455
8.74725,5,5,0.379091
8.94505,5,5,0.402727
9.12088,5,5,0.426364
9.31868,5,5,0.45
9.51648,5,5,0.473636
9.71429,5,5,0.497273
9.91209,5,5,0.532727
10.1099,5,5,0.556364
10.3077,5,5,0.58
10.5275,5,5,0.607273
10.7473,5,5,0.648182
10.9451,5,5,0.689091
11.1648,5,5,0.716364
11.3846,5,5,0.760909
11.6264,5,5,0.807273
11.8462,5,5,0.853636
12.0659,5,5,0.916364
12.3077,5,5,0.965455
12.5495,5,5,1.01455
12.7912,5,5,1.06364
13.033,5,5,1.13182
13.2747,5,5,1.18364
13.5385,5,5,1.23545
13.7802,5,5,1.28909
14.044,5,5,1.32727
14.3077,5,5,1.36545
14.5714,5,5,1.40364
14.8571,5,5,1.42273
15.1209,5,5,1.44182
15.4066,5,5,1.46091
15.6923,5,5,1.48
15.978,5,5,1.48
16.2637,5,5,1.48
16.5495,5,5,1.48
16.8571,5,5,1.48
17.1648,5,5,1.48
17.4725,5,5,1.48
17.7802,5,5,1.48
18.0879,5,5,1.48
18.4176,5,5,1.48
18.7473,5,5,1.48
19.0769,5,5,1.48
19.4066,5,5,1.48
19.7582,5,5,1.48
20.0879,5,5,1.50091
20.4396,5,5,1.52182
20.7912,5,5,1.54273
21.1648,5,5,1.56364
21.5165,5,5,1.58455
21.8901,5,5,1.60545
22.2637,5,5,1.62636
22.6593,5,5,1.64727
23.033,5,5,1.66818
23.4286,5,5,1.68909
23.8242,5,5,1.73364
24.2418,5,5,1.75727
24.6374,5,5,1.78091
25.0549,5,5,1.80455
25.4725,5,5,1.82818
25.9121,5,5,1.87545
26.3516,5,5,1.92273
26.7912,5,5,1.97
27.2308,5,5,2.01909
27.6923,5,5,2.06818
28.1319,5,5,2.11727
28.6154,5,5,2.16636
29.0769,5,5,2.21545
29.5604,5,5,2.26727
30.044,5,5,2.32182
30.5495,5,5,2.37636
31.033,5,5,2.40364
31.5604,5,5,2.43091
32.0659,5,5,2.45818
32.5934,5,5,2.48545
33.1209,5,5,2.51273
33.6484,5,5,2.54
34.1978,5,5,2.54
34.7473,5,5,2.54
35.3187,5,5,2.57
35.8901,5,5,2.6
36.4615,5,5,2.63
37.0549,5,5,2.66
37.6484,5,5,2.69
38.2418,5,5,2.72
38.8571,5,5,2.75
39.4725,5,5,2.78
40.1099,5,5,2.81
40.7473,5,5,2.84
41.4066,5,5,2.87
42.0659,5,5,2.87
42.7253,5,5,2.87
43.4066,5,5,2.87
44.0879,5,5,2.87
44.7912,5,5,2.87
45.4945,5,5,2.87
46.1978,5,5,2.90182
46.9451,5,5,2.93364
47.6703,5,5,2.96545
48.4176,5,5,2.99727
49.1868,5,5,3.02909
49.956,5,5,3.06091
50.7253,5,5,3.09273
51.5165,5,5,3.12455
52.3297,5,5,3.15636
53.1429,5,5,3.18818
53.978,5,5,3.22
54.8132,5,5,3.22
55.6484,5,5,3.25545
56.5275,5,5,3.29091
57.4066,5,5,3.32636
58.2857,5,5,3.36182
59.1868,5,5,3.39727
60.1099,5,5,3.43273
61.033,5,5,3.46818
61.978,5,5,3.50364
62.9231,5,5,3.53909
63.8901,5,5,3.57455
64.8791,5,5,3.61
65.8681,5,5,3.61
66.8791,5,5,3.61
67.9121,5,5,3.61
68.9451,5,5,3.61
70,5,5,3.61
