step,loss
0,0
150,0.248447205
300,0.621118012
450,0.99378882
600,1.366459627
750,1.739130435
900,2.111801242
1050,2.48447205
1200,2.857142857
1350,3.229813665
1500,3.602484472
1650,3.97515528
1800,4.347826087
1950,4.720496894
2100,5.093167702
2250,5.465838509
2400,5.838509317
2550,6.211180124
2700,6.583850932
2850,6.956521739
3000,7.329192547
3150,7.701863354
3300,8.074534161
3450,8.447204969
3600,8.819875776
3750,9.192546584
3900,9.565217391
4050,9.937888199
4200,10.31055901
4350,10.68322981
4500,11.05590062
4650,11.42857143
4800,11.80124224
4950,12.17391304
5100,12.54658385
5250,12.91925466
5400,13.29192547
5550,13.66459627
5700,14.03726708
5850,14.40993789
6000,14.7826087
6150,15.1552795
6300,15.52795031
6450,15.90062112
6600,16.27329193
6750,16.64596273
6900,17.01863354
7050,17.39130435
7200,17.76397516
7350,18.13664596
7500,18.50931677
7650,18.88198758
7800,19.25465839
7950,19.62732919
8100,20
8250,20.37267081
8400,20.74534161
8550,21.11801242
8700,21.49068323
8850,21.86335404
9000,22.23602484
9150,22.60869565
9300,22.98136646
9450,23.35403727
9600,23.72670807
9750,24.09937888
9900,24.47204969
10050,24.8447205
10200,25.2173913
10350,25.59006211
10500,25.96273292
10650,26.33540373
10800,26.70807453
10950,27.08074534
11100,27.45341615
11250,27.82608696
11400,28.19875776
11550,28.57142857
11700,28.94409938
11850,29.31677019
12000,29.68944099
12150,30.0621118
12300,30.43478261
12450,30.80745342
12600,31.18012422
12750,31.55279503
12900,31.92546584
13050,32.29813665
13200,32.67080745
13350,33.04347826
13500,33.41614907
13650,33.78881988
13800,34.16149068
13950,34.53416149
14100,34.9068323
14250,35.27950311
14400,35.65217391
14550,36.02484472
14700,36.39751553
14850,36.77018634
15000,37.14285714
15150,37.51552795
15300,37.88819876
15450,38.26086957
15600,38.63354037
15750,39.00621118
15900,39.37888199
16050,39.7515528
16200,40.1242236
16350,40.49689441
16500,40.86956522
16650,41.24223602
16800,41.61490683
16950,41.98757764
17100,42.36024845
17250,42.73291925
17400,43.10559006
17550,43.47826087
17700,43.85093168
17850,44.22360248
18000,44.59627329
18150,44.9689441
18300,45.34161491
18450,45.71428571
18600,46.08695652
18750,46.45962733
18900,46.83229814
19050,47.20496894
19200,47.57763975
19350,47.95031056
19500,48.32298137
19650,48.69565217
19800,49.06832298
19950,49.44099379
20100,49.8136646
20250,50.1863354
20400,50.55900621
20550,50.93167702
20700,51.30434783
20850,51.67701863
21000,52.04968944
21150,52.42236025
21300,52.79503106
21450,53.16770186
21600,53.54037267
21750,53.91304348
21900,54.28571429
22050,54.65838509
22200,55.0310559
22350,55.40372671
22500,55.77639752
22650,56.14906832
22800,56.52173913
22950,56.89440994
23100,57.26708075
23250,57.63975155
23400,58.01242236
23550,58.38509317
23700,58.75776398
23850,59.13043478
24000,59.50310559
