RAW_XIP_FILE,raw sprr file for xip and different wavelength,-9999,9999,none,&,0,3,0
RAW_XIN_FILE,raw sprr file for xin and different wavelength,-9999,9999,none,&,0,3,0
RAW_XQP_FILE,raw sprr file for xqp and different wavelength,-9999,9999,none,&,0,3,0
RAW_XQN_FILE,raw sprr file for xqn and different wavelength,-9999,9999,none,&,0,3,0
RAW_YIP_FILE,raw sprr file for yip and different wavelength,-9999,9999,none,&,0,3,0
RAW_YIN_FILE,raw sprr file for yin and different wavelength,-9999,9999,none,&,0,3,0
RAW_YQP_FILE,raw sprr file for yqp and different wavelength,-9999,9999,none,&,0,3,0
RAW_YQN_FILE,raw sprr file for yqn and different wavelength,-9999,9999,none,&,0,3,0
PRO_XIP_FILE,processing sprr file for xip and different wavelength,-9999,9999,none,&,0,3,0
PRO_XIN_FILE,processing sprr file for xin and different wavelength,-9999,9999,none,&,0,3,0
PRO_XQP_FILE,processing sprr file for xqp and different wavelength,-9999,9999,none,&,0,3,0
PRO_XQN_FILE,processing sprr file for xqn and different wavelength,-9999,9999,none,&,0,3,0
PRO_YIP_FILE,processing sprr file for yip and different wavelength,-9999,9999,none,&,0,3,0
PRO_YIN_FILE,processing sprr file for yin and different wavelength,-9999,9999,none,&,0,3,0
PRO_YQP_FILE,processing sprr file for yqp and different wavelength,-9999,9999,none,&,0,3,0
PRO_YQN_FILE,processing sprr file for yqn and different wavelength,-9999,9999,none,&,0,3,0
PLOT_S21_WL1,s21 plot under wavelength 1,-9999,9999,none,&,0,3,0
PLOT_S21_WL2,s21 plot under wavelength 2,-9999,9999,none,&,0,3,0
PLOT_S21_WL3,s21 plot under wavelength 3,-9999,9999,none,&,0,3,0
PLOT_SPRR_WL1,sprr plot under wavelength 1,-9999,9999,none,&,0,3,0
PLOT_SPRR_WL2,sprr plot under wavelength 2,-9999,9999,none,&,0,3,0
PLOT_SPRR_WL3,sprr plot under wavelength 3,-9999,9999,none,&,0,3,0
PLOT_S22,plot for all s22,-9999,9999,none,&,0,3,0
SPRR_XI_LOC_WL1,local sprr for xi under wavelength 1,-9999,-20,dB,#0.00,0,2,0
SPRR_XI_SIG_WL1,signal sprr for xi under wavelength 1,-9999,-20,dB,#0.00,0,2,0
SPRR_XQ_LOC_WL1,local sprr for xq under wavelength 1,-9999,-20,dB,#0.00,0,2,0
SPRR_XQ_SIG_WL1,signal sprr for xq under wavelength 1,-9999,-20,dB,#0.00,0,2,0
SPRR_YI_LOC_WL1,local sprr for yi under wavelength 1,-9999,-20,dB,#0.00,0,2,0
SPRR_YI_SIG_WL1,signal sprr for yi under wavelength 1,-9999,-20,dB,#0.00,0,2,0
SPRR_YQ_LOC_WL1,local sprr for yq under wavelength 1,-9999,-20,dB,#0.00,0,2,0
SPRR_YQ_SIG_WL1,signal sprr for yq under wavelength 1,-9999,-20,dB,#0.00,0,2,0
SPRR_XI_LOC_WL2,local sprr for xi under wavelength 2,-9999,-20,dB,#0.00,0,2,0
SPRR_XI_SIG_WL2,signal sprr for xi under wavelength 2,-9999,-20,dB,#0.00,0,2,0
SPRR_XQ_LOC_WL2,local sprr for xq under wavelength 2,-9999,-20,dB,#0.00,0,2,0
SPRR_XQ_SIG_WL2,signal sprr for xq under wavelength 2,-9999,-20,dB,#0.00,0,2,0
SPRR_YI_LOC_WL2,local sprr for yi under wavelength 2,-9999,-20,dB,#0.00,0,2,0
SPRR_YI_SIG_WL2,signal sprr for yi under wavelength 2,-9999,-20,dB,#0.00,0,2,0
SPRR_YQ_LOC_WL2,local sprr for yq under wavelength 2,-9999,-20,dB,#0.00,0,2,0
SPRR_YQ_SIG_WL2,signal sprr for yq under wavelength 2,-9999,-20,dB,#0.00,0,2,0
SPRR_XI_LOC_WL3,local sprr for xi under wavelength 3,-9999,-20,dB,#0.00,0,2,0
SPRR_XI_SIG_WL3,signal sprr for xi under wavelength 3,-9999,-20,dB,#0.00,0,2,0
SPRR_XQ_LOC_WL3,local sprr for xq under wavelength 3,-9999,-20,dB,#0.00,0,2,0
SPRR_XQ_SIG_WL3,signal sprr for xq under wavelength 3,-9999,-20,dB,#0.00,0,2,0
SPRR_YI_LOC_WL3,local sprr for yi under wavelength 3,-9999,-20,dB,#0.00,0,2,0
SPRR_YI_SIG_WL3,signal sprr for yi under wavelength 3,-9999,-20,dB,#0.00,0,2,0
SPRR_YQ_LOC_WL3,local sprr for yq under wavelength 3,-9999,-20,dB,#0.00,0,2,0
SPRR_YQ_SIG_WL3,signal sprr for yq under wavelength 3,-9999,-20,dB,#0.00,0,2,0
PLOT_SPRR_STAT,sprr statistics over lanes and wavelength,-9999,9999,none,&,0,3,0
S21_XIP_WL1,xip s21 under wavelength 1,8,9999,GHz,#0.00,0,2,0
S21_XIN_WL1,xin s21 under wavelength 1,8,9999,GHz,#0.00,0,2,0
S21_XQP_WL1,xqp s21 under wavelength 1,8,9999,GHz,#0.00,0,2,0
S21_XQN_WL1,xqn s21 under wavelength 1,8,9999,GHz,#0.00,0,2,0
S21_YIP_WL1,yip s21 under wavelength 1,8,9999,GHz,#0.00,0,2,0
S21_YIN_WL1,yin s21 under wavelength 1,8,9999,GHz,#0.00,0,2,0
S21_YQP_WL1,yqp s21 under wavelength 1,8,9999,GHz,#0.00,0,2,0
S21_YQN_WL1,yqn s21 under wavelength 1,8,9999,GHz,#0.00,0,2,0
S21_XIP_WL2,xip s22 under wavelength 2,8,9999,GHz,#0.00,0,2,0
S21_XIN_WL2,xin s22 under wavelength 2,8,9999,GHz,#0.00,0,2,0
S21_XQP_WL2,xqp s22 under wavelength 2,8,9999,GHz,#0.00,0,2,0
S21_XQN_WL2,xqn s22 under wavelength 2,8,9999,GHz,#0.00,0,2,0
S21_YIP_WL2,yip s22 under wavelength 2,8,9999,GHz,#0.00,0,2,0
S21_YIN_WL2,yin s22 under wavelength 2,8,9999,GHz,#0.00,0,2,0
S21_YQP_WL2,yqp s22 under wavelength 2,8,9999,GHz,#0.00,0,2,0
S21_YQN_WL2,yqn s22 under wavelength 2,8,9999,GHz,#0.00,0,2,0
S21_XIP_WL3,xip s33 under wavelength 3,8,9999,GHz,#0.00,0,2,0
S21_XIN_WL3,xin s33 under wavelength 3,8,9999,GHz,#0.00,0,2,0
S21_XQP_WL3,xqp s33 under wavelength 3,8,9999,GHz,#0.00,0,2,0
S21_XQN_WL3,xqn s33 under wavelength 3,8,9999,GHz,#0.00,0,2,0
S21_YIP_WL3,yip s33 under wavelength 3,8,9999,GHz,#0.00,0,2,0
S21_YIN_WL3,yin s33 under wavelength 3,8,9999,GHz,#0.00,0,2,0
S21_YQP_WL3,yqp s33 under wavelength 3,8,9999,GHz,#0.00,0,2,0
S21_YQN_WL3,yqn s33 under wavelength 3,8,9999,GHz,#0.00,0,2,0
PLOT_S21_STAT,3dB bandwidth statistics over lanes and wavelength,-9999,9999,none,&,0,3,0
MIN_S21_WL1,min s21 for all lanes under wavelength 1,-9999,9999,GHz,#0.00,0,2,0
MIN_S21_WL2,min s21 for all lanes under wavelength 2,-9999,9999,GHz,#0.00,0,2,0
MIN_S21_WL3,min s21 for all lanes under wavelength 3,-9999,9999,GHz,#0.00,0,2,0
MAX_S21_WL1,max s21 for all lanes under wavelength 1,-9999,9999,GHz,#0.00,0,2,0
MAX_S21_WL2,max s21 for all lanes under wavelength 2,-9999,9999,GHz,#0.00,0,2,0
MAX_S21_WL3,max s21 for all lanes under wavelength 3,-9999,9999,GHz,#0.00,0,2,0
S21_DEV_WL1,deviation of  s21 for all lanes under wavelength 1,-9999,1,GHz,#0.00,0,2,0
S21_DEV_WL2,deviation of  s21 for all lanes under wavelength 2,-9999,1,GHz,#0.00,0,2,0
S21_DEV_WL3,deviation of  s21 for all lanes under wavelength 3,-9999,1,GHz,#0.00,0,2,0
MAX_SPRR_SIG_WL1,max signal sprr for all lanes under wavelength 1,-9999,9999,dB,#0.00,0,2,0
MAX_SPRR_SIG_WL2,max signal sprr for all lanes under wavelength 2,-9999,9999,dB,#0.00,0,2,0
MAX_SPRR_SIG_WL3,max signal sprr for all lanes under wavelength 3,-9999,9999,dB,#0.00,0,2,0
MAX_SPRR_LOC_WL1,max local sprr for all lanes under wavelength 1,-9999,9999,dB,#0.00,0,2,0
MAX_SPRR_LOC_WL2,max local sprr for all lanes under wavelength 2,-9999,9999,dB,#0.00,0,2,0
MAX_SPRR_LOC_WL3,max local sprr for all lanes under wavelength 3,-9999,9999,dB,#0.00,0,2,0
COMMENTS,comments,-9999,9999,none,256A,0,3,0
DELAY_LINE_X_FILE,optimum delay line for X TIA output measurement,-9999,9999,none,&,0,3,0
DELAY_LINE_X_LOC,loc delay line in X TIA output measurement,-9999,9999,ps,#0.00,0,2,0
DELAY_LINE_X_SIG,sig delay line in X TIA output measurement,-9999,9999,ps,#0.00,0,2,0
DELAY_LINE_Y_FILE,optimum delay line for Y TIA output measurement,-9999,9999,none,&,0,3,0
DELAY_LINE_Y_LOC,loc delay line in Y TIA output measurement,-9999,9999,ps,#0.00,0,2,0
DELAY_LINE_Y_SIG,sig delay line in Y TIA output measurement,-9999,9999,ps,#0.00,0,2,0
EQUIP_ID,Equipment Identity,-9999,9999,none,&,0,4,0
I_GC_XI,supply current for XI GC,-9999,9999,mA,#0.00,0,2,0
I_GC_XQ,supply current for XQ GC,-9999,9999,mA,#0.00,0,2,0
I_GC_YI,supply current for YI GC,-9999,9999,mA,#0.00,0,2,0
I_GC_YQ,supply current for YQGC,-9999,9999,mA,#0.00,0,2,0
I_MC_X,supply current for X MC,-9999,9999,mA,#0.00,0,2,0
I_MC_Y,supply current for Y MC,-9999,9999,mA,#0.00,0,2,0
ICC_TIA_XI,supply current for XI VCC,-9999,9999,mA,#0.00,0,2,0
ICC_TIA_XQ,supply current for XQ VCC,-9999,9999,mA,#0.00,0,2,0
ICC_TIA_YI,supply current for YI VCC,-9999,9999,mA,#0.00,0,2,0
ICC_TIA_YQ,supply current for YQ VCC,-9999,9999,mA,#0.00,0,2,0
PART_CODE,Product code,-9999,9999,none,20A,0,5,0
POL_SUM_IP_FILE,photocurrent sum of polarization optimization file,-9999,9999,none,&,0,3,0
POL_X_LOC_FILE,local polarization controller optimization for X chip file,-9999,9999,none,&,0,3,0
POL_X_SIG_FILE,signal polarization controller optimization for X chip file,-9999,9999,none,&,0,3,0
POL_Y_LOC_FILE,local polarization controller optimization for X chip file,-9999,9999,none,&,0,3,0
POL_Y_SIG_FILE,signal polarization controller optimization for Y chip file,-9999,9999,none,&,0,3,0
SOFTWARE_IDENT,Software Identity,-9999,9999,none,256A,0,3,0
SPEC_ID,Specification ID,-9999,9999,none,80A,0,4,0
TC_BW_SET,TIA bandwidth control setting,0,0,none,#0.00,0,2,0
TC_INPUT_POWER_LOCAL,initial input power to local fibre,-6,-6,dBm,#0.00,0,2,0
TC_INPUT_POWER_SIGNAL,initial input power to signal fibre,-6,-6,dBm,#0.00,0,2,0
TC_INPUT_POWER_TOL,input power tolerance,0.1,0.1,dB,#0.00,0,2,0
TC_PD_REVERSE_BIAS,reverse bias voltage for working PD,5,5,V,#0.00,0,2,0
TC_SPRR_SET,sprr test setting such as 3dB bandwidth,10,10,GHz,#0.00,0,2,0
TC_TEMPERATURE,test temperature,80,80,degC,#0.00,0,2,0
TC_TIA_VCC,TIA supply voltage,3.3,3.3,V,#0.00,0,2,0
TC_TIA_VGC_XI,XI TIA GC control voltage under manual mode,2.5,2.5,V,#0.00,0,2,0
TC_TIA_VGC_XQ,XQ TIA GC control voltage under manual mode,2.5,2.5,V,#0.00,0,2,0
TC_TIA_VGC_YI,YI TIA GC control voltage under manual mode,2.5,2.5,V,#0.00,0,2,0
TC_TIA_VGC_YQ,YQ TIA GC control voltage under manual mode,2.5,2.5,V,#0.00,0,2,0
TC_TIA_VMC_X,X TIA manual mode control voltage,0,0,V,#0.00,0,2,0
TC_TIA_VMC_Y,Y TIA manual mode control voltage,0,0,V,#0.00,0,2,0
TEST_STATUS,TEST_STATUS,-9999,9999,none,14A,0,6,0
TEST_TIME,Test Time,-9999,9999,minute,#0.00,0,2,0
TIME_DATE,Time and Date,-9999,9999,none,14A,0,6,0
TIME_SENSITIVITY_LIA_X,delay line adjustment data for X TIA output,-9999,9999,ms,#0.00,0,2,0
TIME_SENSITIVITY_LIA_Y,time sensitivity for Y output measurement,-9999,9999,ms,#0.00,0,2,0
VOLTAGE_SENSITIVITY_LIA_X,delay line adjustment data for Y TIA output,-9999,9999,mVpp,#0.00,0,2,0
VOLTAGE_SENSITIVITY_LIA_Y,voltage sensitivity for Y output measurement,-9999,9999,mVpp,#0.00,0,2,0
X_CHIP_BIN,x chip bin identification,-9999,9999,none,80A,0,4,0
X_CHIP_ID,x chip identification,-9999,9999,none,80A,0,4,0
X_COC_SN,x CoC serial no.,-9999,9999,none,80A,0,4,0
X_WAFER_ID,x wafer identification,-9999,9999,none,80A,0,4,0
Y_CHIP_BIN,y chip bin identification,-9999,9999,none,80A,0,4,0
Y_CHIP_ID,y chip identification,-9999,9999,none,80A,0,4,0
Y_COC_SN,y CoC serial no.,-9999,9999,none,80A,0,4,0
Y_WAFER_ID,y wafer identification,-9999,9999,none,80A,0,4,0
TC_WAVELENGTH_1,test wavelength 1,1567.13,1567.13,nm,#0.00,0,2,0
TC_WAVELENGTH_2,test wavelength 2,1550.11,1550.11,nm,#0.00,0,2,0
TC_WAVELENGTH_3,test wavelength 3,1531.89,1531.89,nm,#0.00,0,2,0
SPRR_POWER_IP_X_WL1_FILE,sprr power and current file under wavelength 1,-9999,9999,none,&,0,3,0
SPRR_POWER_IP_X_WL2_FILE,sprr power and current file under wavelength 2,-9999,9999,none,&,0,3,0
SPRR_POWER_IP_X_WL3_FILE,sprr power and current file under wavelength 3,-9999,9999,none,&,0,3,0
SPRR_POWER_IP_Y_WL1_FILE,sprr power and current file under wavelength 1,-9999,9999,none,&,0,3,0
SPRR_POWER_IP_Y_WL2_FILE,sprr power and current file under wavelength 2,-9999,9999,none,&,0,3,0
SPRR_POWER_IP_Y_WL3_FILE,sprr power and current file under wavelength 3,-9999,9999,none,&,0,3,0
S22_MASK_CHECK,s22 mask check,1,1,none,0,0,1,0
SPRR_SIG_MASK_CHECK_WL1,signal sprr mask check under wavelength 1,1,1,none,0,0,1,0
SPRR_LOC_MASK_CHECK_WL1,local sprr mask check under wavelength 1,1,1,none,0,0,1,0
SPRR_SIG_MASK_CHECK_WL2,signal sprr mask check under wavelength 2,1,1,none,0,0,1,0
SPRR_LOC_MASK_CHECK_WL2,local sprr mask check under wavelength 2,1,1,none,0,0,1,0
SPRR_SIG_MASK_CHECK_WL3,signal sprr mask check under wavelength 3,1,1,none,0,0,1,0
SPRR_LOC_MASK_CHECK_WL3,local sprr mask check under wavelength 3,1,1,none,0,0,1,0
SPRR_MASK_FILE,sprr mask statistics file,-9999,9999,none,&,0,3,0
S21_MASK_CHECK_WL1,s21 mask check under wavelength 1,1,1,none,0,0,1,0
S21_MASK_CHECK_WL2,s21 mask check under wavelength 2,1,1,none,0,0,1,0
S21_MASK_CHECK_WL3,s21 mask check under wavelength 3,1,1,none,0,0,1,0
S21_MASK_FILE,s21 statistics file,-9999,9999,none,&,0,3,0
PLOT_CURRENT_RATIO_STAT,current ratio summary file,-9999,9999,none,&,0,3,0
MIN_CURRENT_RATIO_WL1,min current ratio over lanes at wavelength 1,10,9999,dB,#0.0,0,2,0
MIN_CURRENT_RATIO_WL2,min current ratio over lanes at wavelength 2,10,9999,dB,#0.0,0,2,0
MIN_CURRENT_RATIO_WL3,min current ratio over lanes at wavelength 3,10,9999,dB,#0.0,0,2,0
INPUT_POWER_LOCAL,actual input power to local fibre,-9999,9999,dBm,#0.00,0,2,0
INPUT_POWER_SIGNAL,actual input power to signal fibre,-9999,9999,dBm,#0.00,0,2,0
OPERATOR_ID,Operator identifier,-9999,9999,none,&,0,4,0
NODE,Node Number,-9999,9999,none,0,0,1,0
